{
    "title": "Answers",
    "description": "",

    /* DB config*/
    "tableName": "answers",
    "incrementField": "id",
    "useLaravelTimestamps": true,
    "translatable": true,
    "parentModule": "questions",
    "fillable": ["answer","tip","correct"],
    "indexPlugin": [
        {
            "pluginName": "sortableList",
            "addBtn"    : { "text": "add new Answer" },
            "displayFields": ["answer"]
        }
    ],

    /* Field Configs used for: DB, Request, Tranformer, ReactJS */
    "fields": {
        "id": {
            "type": "number",
            "title": "id",
            "primaryKey" : true,
            "required" : true
        },
        "answer": {
            "pluginName": "ckEditor",
            "type": "text",
            "title": "Answer",
            "translatable": true,
            "required" : true
        },
        "tip": {
            "pluginName": "ckEditor",
            "type": "text",
            "title": "Tip",
            "translatable": true
        },
        "correct": {
            "pluginName": "checkboxField",
            "type": "tinyInteger",
            "title": "Correct"
        }
    }
}